…
ℹ Use `spec()` to retrieve the full column specification for this data.
ℹ Specify the column types or set `show_col_types = FALSE` to quiet this message.
# A tibble: 12,948 × 6
   gid_0 gid_1    country     outcome         predicted predicted_error
   <chr> <chr>    <chr>       <chr>               <dbl>           <dbl>
 1 AFG   AFG.1_1  Afghanistan perc_owns_mobi…   25.9             5.57  
 2 AFG   AFG.1_1  Afghanistan perc_owns_mobi…   78.9             3.33  
 3 AFG   AFG.1_1  Afghanistan perc_owns_mobi…    0.333           0.0464
 4 AFG   AFG.1_1  Afghanistan perc_used_inte…    4.78            5.20  
 5 AFG   AFG.1_1  Afghanistan perc_used_inte…   30.4             6.84  
 6 AFG   AFG.1_1  Afghanistan perc_used_inte…    0.0921          0.0871
 7 AFG   AFG.10_1 Afghanistan perc_owns_mobi…   30.2             5.81  
 8 AFG   AFG.10_1 Afghanistan perc_owns_mobi…   77.7             3.39  
 9 AFG   AFG.10_1 Afghanistan perc_owns_mobi…    0.355           0.0946
10 AFG   AFG.10_1 Afghanistan perc_used_inte…    6.46            4.82  
# ℹ 12,938 more rows
# ℹ Use `print(n = ...)` to see more rows
# A tibble: 12,948 × 6
   gid_0 gid_1    country     outcome                                                   predicted predicted_error
   <chr> <chr>    <chr>       <chr>                                                         <dbl>           <dbl>
 1 AFG   AFG.1_1  Afghanistan perc_owns_mobile_telephone_wght_age_15_to_49_wom            25.9             5.57  
 2 AFG   AFG.1_1  Afghanistan perc_owns_mobile_telephone_wght_age_15_to_49_men            78.9             3.33  
 3 AFG   AFG.1_1  Afghanistan perc_owns_mobile_telephone_wght_age_15_to_49_fm_ratio        0.333           0.0464
 4 AFG   AFG.1_1  Afghanistan perc_used_internet_past12months_wght_age_15_to_49_wom        4.78            5.20  
 5 AFG   AFG.1_1  Afghanistan perc_used_internet_past12months_wght_age_15_to_49_men       30.4             6.84  
 6 AFG   AFG.1_1  Afghanistan perc_used_internet_past12months_wght_age_15_to_49_fm_rat…    0.0921          0.0871
 7 AFG   AFG.10_1 Afghanistan perc_owns_mobile_telephone_wght_age_15_to_49_wom            30.2             5.81  
 8 AFG   AFG.10_1 Afghanistan perc_owns_mobile_telephone_wght_age_15_to_49_men            77.7             3.39  
 9 AFG   AFG.10_1 Afghanistan perc_owns_mobile_telephone_wght_age_15_to_49_fm_ratio        0.355           0.0946
10 AFG   AFG.10_1 Afghanistan perc_used_internet_past12months_wght_age_15_to_49_wom        6.46            4.82  
# ℹ 12,938 more rows
# ℹ Use `print(n = ...)` to see more rows
…
